  {  
    "gridsizeGPU":   {
    "name": "gridsize",
    "compiler": "futhark-opencl",
    "title": "Increasing gridsize",
    "label": "gpu",
    "label_x": "gridsize",
    "label_y": "runtime (ms)",
    "x_ticks": [200, 400, 600, 800, 1000, 1200, 1400, 1600, 1800, 2000, 2200, 2400, 2600, 2800, 3000],
    "inputs": [
      "-- compiled input { 200 1.0f32 1000 1.0f32 10.0f32 1.0f32 }",
      "-- compiled input { 400 1.0f32 1000 1.0f32 10.0f32 1.0f32 }",
      "-- compiled input { 600 1.0f32 1000 1.0f32 10.0f32 1.0f32 }",
      "-- compiled input { 800 1.0f32 1000 1.0f32 10.0f32 1.0f32 }",
      "-- compiled input { 1000 1.0f32 1000 1.0f32 10.0f32 1.0f32 }",
      "-- compiled input { 1200 1.0f32 1000 1.0f32 10.0f32 1.0f32 }",
      "-- compiled input { 1400 1.0f32 1000 1.0f32 10.0f32 1.0f32 }",            
      "-- compiled input { 1600 1.0f32 1000 1.0f32 10.0f32 1.0f32 }",
      "-- compiled input { 1800 1.0f32 1000 1.0f32 10.0f32 1.0f32 }",
      "-- compiled input { 2000 1.0f32 1000 1.0f32 10.0f32 1.0f32 }",
      "-- compiled input { 2200 1.0f32 1000 1.0f32 10.0f32 1.0f32 }",
      "-- compiled input { 2400 1.0f32 1000 1.0f32 10.0f32 1.0f32 }",
      "-- compiled input { 2600 1.0f32 1000 1.0f32 10.0f32 1.0f32 }",
      "-- compiled input { 2800 1.0f32 1000 1.0f32 10.0f32 1.0f32 }",
      "-- compiled input { 3000 1.0f32 1000 1.0f32 10.0f32 1.0f32 }"      
    ]
  },
  "gridsizeCPU":   {
    "name": "gridsize",
    "compiler": "futhark-c",
    "title": "Increasing gridsize",
    "label": "cpu",    
    "label_x": "gridsize",
    "label_y": "runtime (ms)",
    "x_ticks": [200, 400, 600, 800, 1000, 1200, 1400, 1600, 1800, 2000, 2200, 2400, 2600, 2800, 3000],
    "inputs": [
      "-- compiled input { 200 1.0f32 1000 1.0f32 10.0f32 1.0f32 }",
      "-- compiled input { 400 1.0f32 1000 1.0f32 10.0f32 1.0f32 }",
      "-- compiled input { 600 1.0f32 1000 1.0f32 10.0f32 1.0f32 }",
      "-- compiled input { 800 1.0f32 1000 1.0f32 10.0f32 1.0f32 }",
      "-- compiled input { 1000 1.0f32 1000 1.0f32 10.0f32 1.0f32 }",
      "-- compiled input { 1200 1.0f32 1000 1.0f32 10.0f32 1.0f32 }",
      "-- compiled input { 1400 1.0f32 1000 1.0f32 10.0f32 1.0f32 }",            
      "-- compiled input { 1600 1.0f32 1000 1.0f32 10.0f32 1.0f32 }",
      "-- compiled input { 1800 1.0f32 1000 1.0f32 10.0f32 1.0f32 }",
      "-- compiled input { 2000 1.0f32 1000 1.0f32 10.0f32 1.0f32 }",
      "-- compiled input { 2200 1.0f32 1000 1.0f32 10.0f32 1.0f32 }",
      "-- compiled input { 2400 1.0f32 1000 1.0f32 10.0f32 1.0f32 }",
      "-- compiled input { 2600 1.0f32 1000 1.0f32 10.0f32 1.0f32 }",
      "-- compiled input { 2800 1.0f32 1000 1.0f32 10.0f32 1.0f32 }",
      "-- compiled input { 3000 1.0f32 1000 1.0f32 10.0f32 1.0f32 }" 
    ]
  },
  "linecountGPU": {
    "compiler": "futhark-opencl",    
    "title": "Increasing linecount",
    "label": "gpu",    
    "label_x": "linecount",
    "label_y": "runtime (ms)",
    "x_ticks": [200, 400, 600, 800, 1000, 1200, 1400, 1600, 1800, 2000, 2200, 2400, 2600, 2800, 3000],
    "inputs": [
      "-- compiled input { 1000 1.0f32 200 1.0f32 10.0f32 1.0f32 }",
      "-- compiled input { 1000 1.0f32 400 1.0f32 10.0f32 1.0f32 }",
      "-- compiled input { 1000 1.0f32 600 1.0f32 10.0f32 1.0f32 }",
      "-- compiled input { 1000 1.0f32 800 1.0f32 10.0f32 1.0f32 }",
      "-- compiled input { 1000 1.0f32 1000 1.0f32 10.0f32 1.0f32 }",
      "-- compiled input { 1000 1.0f32 1200 1.0f32 10.0f32 1.0f32 }",
      "-- compiled input { 1000 1.0f32 1400 1.0f32 10.0f32 1.0f32 }",
      "-- compiled input { 1000 1.0f32 1600 1.0f32 10.0f32 1.0f32 }",
      "-- compiled input { 1000 1.0f32 1800 1.0f32 10.0f32 1.0f32 }",
      "-- compiled input { 1000 1.0f32 2000 1.0f32 10.0f32 1.0f32 }",
      "-- compiled input { 1000 1.0f32 2200 1.0f32 10.0f32 1.0f32 }",
      "-- compiled input { 1000 1.0f32 2400 1.0f32 10.0f32 1.0f32 }",
      "-- compiled input { 1000 1.0f32 2600 1.0f32 10.0f32 1.0f32 }",
      "-- compiled input { 1000 1.0f32 2800 1.0f32 10.0f32 1.0f32 }",
      "-- compiled input { 1000 1.0f32 3000 1.0f32 10.0f32 1.0f32 }" 
    ]
  },
  "linecountCPU": {
    "compiler": "futhark-c",    
    "title": "Increasing linecount",
    "label": "cpu",    
    "label_x": "linecount",
    "label_y": "runtime (ms)",
    "x_ticks": [200, 400, 600, 800, 1000, 1200, 1400, 1600, 1800, 2000, 2200, 2400, 2600, 2800, 3000],
    "inputs": [
      "-- compiled input { 1000 1.0f32 200 1.0f32 10.0f32 1.0f32 }",
      "-- compiled input { 1000 1.0f32 400 1.0f32 10.0f32 1.0f32 }",
      "-- compiled input { 1000 1.0f32 600 1.0f32 10.0f32 1.0f32 }",
      "-- compiled input { 1000 1.0f32 800 1.0f32 10.0f32 1.0f32 }",
      "-- compiled input { 1000 1.0f32 1000 1.0f32 10.0f32 1.0f32 }",
      "-- compiled input { 1000 1.0f32 1200 1.0f32 10.0f32 1.0f32 }",
      "-- compiled input { 1000 1.0f32 1400 1.0f32 10.0f32 1.0f32 }",
      "-- compiled input { 1000 1.0f32 1600 1.0f32 10.0f32 1.0f32 }",
      "-- compiled input { 1000 1.0f32 1800 1.0f32 10.0f32 1.0f32 }",
      "-- compiled input { 1000 1.0f32 2000 1.0f32 10.0f32 1.0f32 }",      
      "-- compiled input { 1000 1.0f32 2200 1.0f32 10.0f32 1.0f32 }",
      "-- compiled input { 1000 1.0f32 2400 1.0f32 10.0f32 1.0f32 }",
      "-- compiled input { 1000 1.0f32 2600 1.0f32 10.0f32 1.0f32 }",
      "-- compiled input { 1000 1.0f32 2800 1.0f32 10.0f32 1.0f32 }",
      "-- compiled input { 1000 1.0f32 3000 1.0f32 10.0f32 1.0f32 }"
    ]
  },
  "anglesGPU": {
    "compiler": "futhark-opencl",    
    "title": "Increasing angle count",
    "label": "gpu",    
    "label_x": "angle count",
    "label_y": "runtime (ms)",
    "x_ticks": [2, 4, 6, 8, 10, 12, 14, 16, 18, 20, 22, 24, 26, 28, 30],
    "inputs": [
      "-- compiled input { 1000 1.0f32 500 1.0f32 2.0f32 1.0f32 }",
      "-- compiled input { 1000 1.0f32 500 1.0f32 4.0f32 1.0f32 }",
      "-- compiled input { 1000 1.0f32 500 1.0f32 6.0f32 1.0f32 }",
      "-- compiled input { 1000 1.0f32 500 1.0f32 8.0f32 1.0f32 }",
      "-- compiled input { 1000 1.0f32 500 1.0f32 10.0f32 1.0f32 }",
      "-- compiled input { 1000 1.0f32 500 1.0f32 12.0f32 1.0f32 }",
      "-- compiled input { 1000 1.0f32 500 1.0f32 14.0f32 1.0f32 }",
      "-- compiled input { 1000 1.0f32 500 1.0f32 16.0f32 1.0f32 }",
      "-- compiled input { 1000 1.0f32 500 1.0f32 18.0f32 1.0f32 }",
      "-- compiled input { 1000 1.0f32 500 1.0f32 20.0f32 1.0f32 }",
      "-- compiled input { 1000 1.0f32 500 1.0f32 22.0f32 1.0f32 }",
      "-- compiled input { 1000 1.0f32 500 1.0f32 24.0f32 1.0f32 }",
      "-- compiled input { 1000 1.0f32 500 1.0f32 26.0f32 1.0f32 }",      
      "-- compiled input { 1000 1.0f32 500 1.0f32 28.0f32 1.0f32 }",
      "-- compiled input { 1000 1.0f32 500 1.0f32 30.0f32 1.0f32 }"      
    ]
  },
  "anglesCPU": {
    "compiler": "futhark-c",    
    "title": "Increasing angle count",
    "label": "cpu",    
    "label_x": "angle count",
    "label_y": "runtime (ms)",
    "x_ticks": [2, 4, 6, 8, 10, 12, 14, 16, 18, 20, 22, 24, 26, 28, 30],
    "inputs": [
      "-- compiled input { 1000 1.0f32 500 1.0f32 2.0f32 1.0f32 }",
      "-- compiled input { 1000 1.0f32 500 1.0f32 4.0f32 1.0f32 }",
      "-- compiled input { 1000 1.0f32 500 1.0f32 6.0f32 1.0f32 }",
      "-- compiled input { 1000 1.0f32 500 1.0f32 8.0f32 1.0f32 }",
      "-- compiled input { 1000 1.0f32 500 1.0f32 10.0f32 1.0f32 }",
      "-- compiled input { 1000 1.0f32 500 1.0f32 12.0f32 1.0f32 }",
      "-- compiled input { 1000 1.0f32 500 1.0f32 14.0f32 1.0f32 }",
      "-- compiled input { 1000 1.0f32 500 1.0f32 16.0f32 1.0f32 }",
      "-- compiled input { 1000 1.0f32 500 1.0f32 18.0f32 1.0f32 }",
      "-- compiled input { 1000 1.0f32 500 1.0f32 20.0f32 1.0f32 }",
      "-- compiled input { 1000 1.0f32 500 1.0f32 22.0f32 1.0f32 }",
      "-- compiled input { 1000 1.0f32 500 1.0f32 24.0f32 1.0f32 }",
      "-- compiled input { 1000 1.0f32 500 1.0f32 26.0f32 1.0f32 }",      
      "-- compiled input { 1000 1.0f32 500 1.0f32 28.0f32 1.0f32 }",
      "-- compiled input { 1000 1.0f32 500 1.0f32 30.0f32 1.0f32 }" 
    ]
  },
  "linecountGPU-fly": {
    "compiler": "futhark-opencl",    
    "title": "Increasing linecount",
    "label": "gpu",    
    "label_x": "linecount",
    "label_y": "runtime (ms)",
    "x_ticks": [100, 200, 300, 400, 500, 600, 700, 800, 900, 1000],
    "inputs": [
      "-- compiled input { 2000 1.0f32 100 15.0f32 25.0f32 1.0f32 }",
      "-- compiled input { 2000 1.0f32 200 15.0f32 25.0f32 1.0f32 }",
      "-- compiled input { 2000 1.0f32 300 15.0f32 25.0f32 1.0f32 }",
      "-- compiled input { 2000 1.0f32 400 15.0f32 25.0f32 1.0f32 }",
      "-- compiled input { 2000 1.0f32 500 15.0f32 25.0f32 1.0f32 }",
      "-- compiled input { 2000 1.0f32 600 15.0f32 25.0f32 1.0f32 }",
      "-- compiled input { 2000 1.0f32 700 15.0f32 25.0f32 1.0f32 }",
      "-- compiled input { 2000 1.0f32 800 15.0f32 25.0f32 1.0f32 }",
      "-- compiled input { 2000 1.0f32 900 15.0f32 25.0f32 1.0f32 }",
      "-- compiled input { 2000 1.0f32 1000 15.0f32 25.0f32 1.0f32 }"
    ]
  }
}